{
  "coffee-script": "../vendor/coffee-script",
  "acorn": "../vendor/acorn",
  "droplet-view": "view",
  "droplet-controller": "controller",
  "droplet-model": "model",
  "droplet-draw": "draw",
  "droplet-coffee": "coffee",
  "droplet-javascript": "javascript",
  "droplet-csv": "csv",
  "droplet-json": "json",
  "droplet-parser": "parser",
  "droplet-helper": "helper",
  "droplet": "main"
}
